…
#> bbox:           xmin: 2.757966 ymin: 50.70777 xmax: 5.904029 ymax: 50.92789
#> geographic CRS: WGS 84
habsprings %>% st_write("layers.gpkg",
                        layer = "habsprings",
                        delete_dsn = TRUE)
#> Deleting source `layers.gpkg' failed
#> Writing layer `habsprings' to data source `layers.gpkg' using driver `GPKG'
#> Writing 104 features with 10 fields and geometry type Point.
(read_sf("layers.gpkg"))
#> Simple feature collection with 104 features and 10 fields
#> geometry type:  POINT
#> dimension:      XY
#> bbox:           xmin: 2.757966 ymin: 50.70777 xmax: 5.904029 ymax: 50.92789
#> geographic CRS: WGS 84
#> # A tibble: 104 x 11
#>       id source validity_status name  system_type habitattype unit_id area_m2
#>    <dbl> <chr>  <chr>           <chr> <chr>       <chr>         <dbl>   <dbl>
#>  1     1 kalkt… gecontroleerd   Stee… rivulet     7220              1      50
#>  2     2 kalkt… gecontroleerd   Stee… rivulet     7220              1      20
#>  3     3 kalkt… gecontroleerd   Duli… <NA>        7230             NA       0
#>  4     4 kalkt… gecontroleerd   Kapi… <NA>        gh               NA       0
#>  5     5 kalkt… gecontroleerd   Reme… rivulet     7220              2     200
#>  6     6 kalkt… gecontroleerd   Reme… rivulet     7220              2     500
#>  7     7 anb    te controleren  Kest… unknown     7220,gh          32       0
#>  8     8 kalkt… gecontroleerd   Krin… rivulet     7220              3     800
#>  9     9 kalkt… gecontroleerd   Bois… rivulet     7220              4      50
#> 10    10 kalkt… gecontroleerd   Kwin… mire        7220              5      10
#> # … with 94 more rows, and 3 more variables: year <dbl>, sbz <dbl>, geom <POINT
#> #   [°]>
…
st_layers("layers.gpkg")
#> Driver: GPKG 
#> Available layers:
#>   layer_name geometry_type features fields
#> 1 habsprings         Point      104     10
#> 2        sac       Polygon      616     12
(read_sf("layers.gpkg", layer = "sac"))
#> Simple feature collection with 616 features and 12 fields
#> geometry type:  POLYGON
#> dimension:      XY
#> bbox:           xmin: 22084.25 ymin: 153207.4 xmax: 258865 ymax: 243333
#> projected CRS:  Belge 1972 / Belgian Lambert 72
#> # A tibble: 616 x 13
#>    OBJECTID   AREA PERIMETER POLY_ID VOLGNR GEBCODE DEELGEBIED GEBOPP_HA
#>       <int>  <dbl>     <dbl>   <int>  <int> <chr>   <chr>          <int>
#>  1        1 2.42e6    12389.       1     18 BE2100… BE2100020…       678
#>  2        2 5.48e5     7234.       2     18 BE2100… BE2100020…       678
#>  3        3 5.86e5     4973.       3     19 BE2100… BE2100024…      3627
#>  4        4 2.06e7    27230.       4     14 BE2100… BE2100015…      2064
#>  5        5 2.62e5     2082.       5     19 BE2100… BE2100024…      3627
#>  6        6 9.43e5     4989.       6     18 BE2100… BE2100020…       678
#>  7        7 2.18e5     2010.       7     19 BE2100… BE2100024…      3627
#>  8        8 3.34e5     2967.       8     19 BE2100… BE2100024…      3627
#>  9        9 1.21e7    23357.       9     19 BE2100… BE2100024…      3627
#> 10       10 1.01e6     5913.      10     19 BE2100… BE2100024…      3627
#> # … with 606 more rows, and 5 more variables: HECTARES <dbl>, NAAM <chr>,
#> #   Shape_Leng <dbl>, Shape_Area <dbl>, geom <POLYGON [m]>
(read_sf("layers.gpkg", layer = "habsprings"))
#> Simple feature collection with 104 features and 10 fields
#> geometry type:  POINT
#> dimension:      XY
#> bbox:           xmin: 2.757966 ymin: 50.70777 xmax: 5.904029 ymax: 50.92789
#> geographic CRS: WGS 84
#> # A tibble: 104 x 11
#>       id source validity_status name  system_type habitattype unit_id area_m2
#>    <dbl> <chr>  <chr>           <chr> <chr>       <chr>         <dbl>   <dbl>
#>  1     1 kalkt… gecontroleerd   Stee… rivulet     7220              1      50
#>  2     2 kalkt… gecontroleerd   Stee… rivulet     7220              1      20
#>  3     3 kalkt… gecontroleerd   Duli… <NA>        7230             NA       0
#>  4     4 kalkt… gecontroleerd   Kapi… <NA>        gh               NA       0
#>  5     5 kalkt… gecontroleerd   Reme… rivulet     7220              2     200
#>  6     6 kalkt… gecontroleerd   Reme… rivulet     7220              2     500
#>  7     7 anb    te controleren  Kest… unknown     7220,gh          32       0
#>  8     8 kalkt… gecontroleerd   Krin… rivulet     7220              3     800
#>  9     9 kalkt… gecontroleerd   Bois… rivulet     7220              4      50
#> 10    10 kalkt… gecontroleerd   Kwin… mire        7220              5      10
#> # … with 94 more rows, and 3 more variables: year <dbl>, sbz <dbl>, geom <POINT
#> #   [°]>
…
## without GDAL option already works beautifully (uses GDAL default):

mydf %>%
    st_write("layers.gpkg",
             layer = "mydf",
             delete_layer = TRUE)  # note: delete_layer also works after repeating
#> Deleting layer `mydf' failed
#> Writing layer `mydf' to data source `layers.gpkg' using driver `GPKG'
#> Writing 2600 features with 5 fields without geometries.

(read_sf("layers.gpkg", layer = "mydf")) # no warning
#> # A tibble: 2,600 x 5
#>    a         b     c d          e                  
#>    <chr> <int> <dbl> <date>     <dttm>             
#>  1 a      2600  26   2012-11-18 2020-05-19 19:23:16
#>  2 b      2599  26.0 2012-11-19 2020-05-19 19:23:17
#>  3 c      2598  26.0 2012-11-20 2020-05-19 19:23:18
#>  4 d      2597  26.0 2012-11-21 2020-05-19 19:23:19
#>  5 e      2596  26.0 2012-11-22 2020-05-19 19:23:20
#>  6 f      2595  26.0 2012-11-23 2020-05-19 19:23:21
#>  7 g      2594  25.9 2012-11-24 2020-05-19 19:23:22
#>  8 h      2593  25.9 2012-11-25 2020-05-19 19:23:23
#>  9 i      2592  25.9 2012-11-26 2020-05-19 19:23:24
#> 10 j      2591  25.9 2012-11-27 2020-05-19 19:23:25
#> # … with 2,590 more rows
(st_read("layers.gpkg", layer = "mydf",  # returns warning = OK
         as_tibble = TRUE,
         stringsAsFactors = FALSE))
#> Reading layer `mydf' from data source `/tmp/Rtmpke0Jq1/reprex1c0d78b72965/layers.gpkg' using driver `GPKG'
#> Warning: no simple feature geometries present: returning a data.frame or tbl_df
#> # A tibble: 2,600 x 5
#>    a         b     c d          e                  
#>    <chr> <int> <dbl> <date>     <dttm>             
#>  1 a      2600  26   2012-11-18 2020-05-19 19:23:16
#>  2 b      2599  26.0 2012-11-19 2020-05-19 19:23:17
#>  3 c      2598  26.0 2012-11-20 2020-05-19 19:23:18
#>  4 d      2597  26.0 2012-11-21 2020-05-19 19:23:19
#>  5 e      2596  26.0 2012-11-22 2020-05-19 19:23:20
#>  6 f      2595  26.0 2012-11-23 2020-05-19 19:23:21
#>  7 g      2594  25.9 2012-11-24 2020-05-19 19:23:22
#>  8 h      2593  25.9 2012-11-25 2020-05-19 19:23:23
#>  9 i      2592  25.9 2012-11-26 2020-05-19 19:23:24
#> 10 j      2591  25.9 2012-11-27 2020-05-19 19:23:25
#> # … with 2,590 more rows
…
#>  6       10 1.01e6     5913.      10     19 BE2100… BE2100024…      3627
#>  7       12 1.96e6     8857.      12     19 BE2100… BE2100024…      3627
#>  8       14 3.88e6    11600.      14     19 BE2100… BE2100024…      3627
#>  9       16 5.00e5     3818.      16     19 BE2100… BE2100024…      3627
#> 10       19 2.06e6     6995.      19     19 BE2100… BE2100024…      3627
#> 11       21 8.29e5     6660.      21     19 BE2100… BE2100024…      3627
#> 12       23 9.09e5     6601.      23     19 BE2100… BE2100024…      3627
#> 13       24 9.11e6    25703.      24     19 BE2100… BE2100024…      3627
#> 14       27 3.20e5     3266.      27     19 BE2100… BE2100024…      3627
#> 15       35 2.01e6    10756.      35     19 BE2100… BE2100024…      3627
#> 16       46 1.95e5     1890.      46     19 BE2100… BE2100024…      3627
#> # … with 5 more variables: HECTARES <dbl>, NAAM <chr>, Shape_Leng <dbl>,
#> #   Shape_Area <dbl>, geom <POLYGON [m]>
(read_sf("layers2.gpkg", layer = "mydf"))
#> # A tibble: 2,600 x 5
#>    a         b     c d          e                  
#>    <chr> <int> <dbl> <date>     <dttm>             
#>  1 a      2600  26   2012-11-18 2020-05-19 19:23:16
#>  2 b      2599  26.0 2012-11-19 2020-05-19 19:23:17
#>  3 c      2598  26.0 2012-11-20 2020-05-19 19:23:18
#>  4 d      2597  26.0 2012-11-21 2020-05-19 19:23:19
#>  5 e      2596  26.0 2012-11-22 2020-05-19 19:23:20
#>  6 f      2595  26.0 2012-11-23 2020-05-19 19:23:21
#>  7 g      2594  25.9 2012-11-24 2020-05-19 19:23:22
#>  8 h      2593  25.9 2012-11-25 2020-05-19 19:23:23
#>  9 i      2592  25.9 2012-11-26 2020-05-19 19:23:24
#> 10 j      2591  25.9 2012-11-27 2020-05-19 19:23:25
#> # … with 2,590 more rows
(read_sf("layers2.gpkg", layer = "mydf2"))
#> # A tibble: 2,600 x 5
#>    a         b     c d          e                  
#>    <chr> <int> <dbl> <date>     <dttm>             
#>  1 a      2600  26   2012-11-18 2020-05-19 19:23:16
#>  2 b      2599  26.0 2012-11-19 2020-05-19 19:23:17
#>  3 c      2598  26.0 2012-11-20 2020-05-19 19:23:18
#>  4 d      2597  26.0 2012-11-21 2020-05-19 19:23:19
#>  5 e      2596  26.0 2012-11-22 2020-05-19 19:23:20
#>  6 f      2595  26.0 2012-11-23 2020-05-19 19:23:21
#>  7 g      2594  25.9 2012-11-24 2020-05-19 19:23:22
#>  8 h      2593  25.9 2012-11-25 2020-05-19 19:23:23
#>  9 i      2592  25.9 2012-11-26 2020-05-19 19:23:24
#> 10 j      2591  25.9 2012-11-27 2020-05-19 19:23:25
#> # … with 2,590 more rows
…
